ANOVA Test
…
And let’s take a look at the counts for each age, and age group.

baseball_anova %>% 
  count(player_age)

## # A tibble: 24 x 2
##    player_age     n
##         <dbl> <int>
##  1         20     6
##  2         21    16
##  3         22    49
##  4         23    93
##  5         24   168
##  6         25   231
##  7         26   279
##  8         27   306
##  9         28   266
## 10         29   230
## # ... with 14 more rows
…
grubbs.test(baseball_anova$exit_velocity_avg)

## 
##  Grubbs test for one outlier
## 
## data:  baseball_anova$exit_velocity_avg
## G = 5.50097, U = 0.98822, p-value = 4.438e-05
## alternative hypothesis: lowest value 72.5 is an outlier

The p-value is way below .05 meaning we have some outliers that might
need attention. Let’s take a look at that 72.5 and who produced it.

baseball_anova%>% arrange(exit_velocity_avg)

## # A tibble: 2,570 x 11
##    player_name       player_id  year player_age b_home_run b_walk b_k_percent
##    <chr>                 <dbl> <dbl>      <dbl>      <dbl>  <dbl>       <dbl>
##  1 Dickey, R.A.         285079  2017         43          0      0        17.6
##  2 Gonzalez, Gio        461829  2017         32          0      4        38.7
##  3 Nelson, Jimmy        519076  2017         28          0      1        58.3
##  4 Kelly, Merrill       518876  2021         33          0      4        46.6
##  5 Cueto, Johnny        456501  2017         31          0      1        28.8
##  6 Gray, Jon            592351  2019         28          0      3        37.3
##  7 Alcantara, Sandy     645261  2021         26          0      3        70.3
##  8 Godley, Zack         643327  2017         27          0      2        49.1
##  9 Foltynewicz, Mike    592314  2018         27          0      0        62.1
## 10 Inciarte, Ender      542255  2020         30          1     12        19.1
## # ... with 2,560 more rows, and 4 more variables: on_base_plus_slg <dbl>,
## #   exit_velocity_avg <dbl>, barrel_batted_rate <dbl>, age_group <fct>
…
