Tom_Brady_Scraping
…
2022-02-21

library(tidyverse)
library(rvest)

URL <- "https://www.pro-football-reference.com/players/B/BradTo00/gamelog/"
TB_page <- URL %>% read_html()

get regular season stats table

reg_season_stats <- TB_page %>% html_element(css = "#stats") %>% html_table()
reg_season_stats

## # A tibble: 376 x 52
##    ``    ``    ``        ``    ``    ``    ``    ``    ``    ``    ``    Passing
##    <chr> <chr> <chr>     <chr> <chr> <chr> <chr> <chr> <chr> <chr> <chr> <chr>  
##  1 Rk    Year  Date      G#    Week  "Age" Tm    ""    Opp   Resu~ GS    Cmp    
##  2 1     2000  2000-09-~ 1     1     ""    NWE   ""    TAM   L 16~ Inac~ Inacti~
##  3 2     2000  2000-09-~ 2     2     ""    NWE   "@"   NYJ   L 19~ Inac~ Inacti~
##  4 3     2000  2000-09-~ 3     3     ""    NWE   ""    MIN   L 13~ Inac~ Inacti~
##  5 4     2000  2000-09-~ 4     4     ""    NWE   "@"   MIA   L 3-~ Inac~ Inacti~
##  6 5     2000  2000-10-~ 5     5     ""    NWE   "@"   DEN   W 28~ Inac~ Inacti~
##  7 6     2000  2000-10-~ 6     6     ""    NWE   ""    IND   W 24~ Inac~ Inacti~
##  8 7     2000  2000-10-~ 7     7     ""    NWE   ""    NYJ   L 17~ Inac~ Inacti~
##  9 8     2000  2000-10-~ 8     8     ""    NWE   "@"   IND   L 23~ Inac~ Inacti~
## 10 9     2000  2000-11-~ 9     10    ""    NWE   ""    BUF   L 13~ Inac~ Inacti~
## # ... with 366 more rows, and 40 more variables: Passing <chr>, Passing <chr>,
## #   Passing <chr>, Passing <chr>, Passing <chr>, Passing <chr>, Passing <chr>,
## #   Passing <chr>, Passing <chr>, Passing <chr>, Rushing <chr>, Rushing <chr>,
## #   Rushing <chr>, Rushing <chr>, Receiving <chr>, Receiving <chr>,
## #   Receiving <chr>, Receiving <chr>, Receiving <chr>, Receiving <chr>,
## #   Receiving <chr>, Scoring <chr>, Scoring <chr>, Fumbles <chr>,
## #   Fumbles <chr>, Fumbles <chr>, Fumbles <chr>, Fumbles <chr>, ...

get playoff stats table

playoff_stats <- TB_page %>% html_element(css = "#div_stats_playoffs") %>% html_table()
playoff_stats

## # A tibble: 67 x 45
##    ``    ``    ``        ``    ``    ``    ``    ``    ``    ``    ``    Passing
##    <chr> <chr> <chr>     <chr> <chr> <chr> <chr> <chr> <chr> <chr> <chr> <chr>  
##  1 Rk    Year  Date      G#    Week  Age   Tm    ""    Opp   Resu~ GS    Cmp    
##  2 1     2001  2002-01-~ 17    19    24.1~ NWE   ""    OAK   W 16~ *     32     
##  3 2     2001  2002-01-~ 18    20    24.1~ NWE   "@"   PIT   W 24~ *     12     
##  4 3     2001  2002-02-~ 19    20    24.1~ NWE   "N"   STL   W 20~ *     16     
##  5 Rk    Year  Date      G#    Week  Age   Tm    ""    Opp   Resu~ GS    Cmp    
##  6 4     2003  2004-01-~ 17    19    26.1~ NWE   ""    TEN   W 17~ *     21     
##  7 5     2003  2004-01-~ 18    20    26.1~ NWE   ""    IND   W 24~ *     22     
##  8 6     2003  2004-02-~ 19    21    26.1~ NWE   "N"   CAR   W 32~ *     32     
##  9 Rk    Year  Date      G#    Week  Age   Tm    ""    Opp   Resu~ GS    Cmp    
## 10 7     2004  2005-01-~ 17    19    27.1~ NWE   ""    IND   W 20~ *     18     
## # ... with 57 more rows, and 33 more variables: Passing <chr>, Passing <chr>,
## #   Passing <chr>, Passing <chr>, Passing <chr>, Passing <chr>, Passing <chr>,
## #   Passing <chr>, Passing <chr>, Passing <chr>, Rushing <chr>, Rushing <chr>,
## #   Rushing <chr>, Rushing <chr>, Scoring <chr>, Scoring <chr>, Fumbles <chr>,
## #   Fumbles <chr>, Fumbles <chr>, Fumbles <chr>, Fumbles <chr>, Fumbles <chr>,
## #   Punting <chr>, Punting <chr>, Punting <chr>, Punting <chr>,
## #   `Off. Snaps` <chr>, `Off. Snaps` <chr>, `Def. Snaps` <chr>, ...
…
