TidyTuesday with David Robinson: Horror Movies
…
Next, Dave checks to see how many movies per distributor…

movie_profit %>% count(distributor, sort= TRUE)

## # A tibble: 197 x 2
##    distributor            n
##    <chr>              <int>
##  1 Warner Bros.         360
##  2 Sony Pictures        332
##  3 Universal            299
##  4 20th Century Fox     279
##  5 Paramount Pictures   262
##  6 Walt Disney          237
##  7 Lionsgate            146
##  8 MGM                  121
##  9 Miramax              103
## 10 New Line             100
## # ... with 187 more rows
…
# What summarize_at does is takes a bunch of columns by name (in vars()), then
# tells what to summarize by - what aggregate statistic to spit out (median), 
# and then remove all the NAs

The last table looks a little fishy - why is the median worldwide
gross so high for the 30s? Suspicion is that Gone With the Wind is in
there and that this is adjusted for inflation. Let’s check top earning
movies - if Gone with the Wind is #1 we know it is adjusted.

movie_profit %>% arrange(desc(worldwide_gross))

## # A tibble: 3,345 x 8
##    release_date        movie     production_budg~ domestic_gross worldwide_gross
##    <dttm>              <chr>                <dbl>          <dbl>           <dbl>
##  1 2015-07-10 00:00:00 Minions           74000000      336045770      1162781621
##  2 1993-06-11 00:00:00 Jurassic~         63000000      395708305      1038812584
##  3 2017-06-30 00:00:00 Despicab~         75000000      264624300      1034520868
##  4 1999-05-19 00:00:00 Star War~        115000000      474544677      1027044677
##  5 2016-03-04 00:00:00 Zootopia         150000000      341268248      1019706594
##  6 1994-06-15 00:00:00 The Lion~         79300000      421785283       986332275
##  7 2013-07-03 00:00:00 Despicab~         76000000      368065385       975216835
##  8 2017-12-20 00:00:00 Jumanji:~         90000000      404508916       961758540
##  9 2004-05-19 00:00:00 Shrek 2           70000000      441226247       937008132
## 10 2003-05-30 00:00:00 Finding ~         94000000      380529370       936429370
## # ... with 3,335 more rows, and 3 more variables: distributor <chr>,
## #   mpaa_rating <chr>, genre <chr>
…
