Tidy_Tuesday_Thanksgiving
…
# How prepared?
thanks %>% count(main_dish, main_prep, sort = TRUE)

## # A tibble: 31 x 3
##    main_dish              main_prep                  n
##    <chr>                  <chr>                  <int>
##  1 Turkey                 Baked                    422
##  2 Turkey                 Roasted                  351
##  3 <NA>                   <NA>                      84
##  4 Turkey                 Fried                     41
##  5 Turkey                 Other (please specify)    34
##  6 Ham/Pork               Baked                     22
##  7 Other (please specify) Baked                     16
##  8 Tofurkey               Baked                     14
##  9 Other (please specify) Other (please specify)    12
## 10 Turkey                 I don't know              11
## # ... with 21 more rows
…
Looking at side dishes. What are the most common sides, pies, and
desserts?

thanks %>% select(id, 
                  starts_with("pie"), 
                  starts_with("dessert"), 
                  starts_with("side"))

## # A tibble: 1,058 x 41
##            id pie1  pie2   pie3  pie4  pie5  pie6  pie7  pie8  pie9  pie10 pie11
##         <dbl> <chr> <chr>  <chr> <chr> <chr> <chr> <chr> <chr> <chr> <chr> <chr>
##  1 4337954960 Apple <NA>   <NA>  <NA>  <NA>  <NA>  <NA>  <NA>  <NA>  <NA>  <NA> 
##  2 4337951949 Apple <NA>   <NA>  Choc~ <NA>  <NA>  <NA>  <NA>  Pump~ <NA>  <NA> 
##  3 4337935621 Apple <NA>   Cher~ <NA>  <NA>  <NA>  Peach Pecan Pump~ Swee~ <NA> 
##  4 4337933040 <NA>  <NA>   <NA>  <NA>  <NA>  <NA>  <NA>  Pecan Pump~ <NA>  <NA> 
##  5 4337931983 Apple <NA>   <NA>  <NA>  <NA>  <NA>  <NA>  <NA>  Pump~ <NA>  <NA> 
##  6 4337929779 <NA>  <NA>   <NA>  <NA>  <NA>  <NA>  <NA>  <NA>  <NA>  Swee~ <NA> 
##  7 4337924420 Apple <NA>   <NA>  <NA>  <NA>  <NA>  <NA>  <NA>  Pump~ <NA>  <NA> 
##  8 4337916002 <NA>  <NA>   <NA>  Choc~ <NA>  <NA>  <NA>  <NA>  <NA>  <NA>  <NA> 
##  9 4337914977 Apple Butte~ <NA>  <NA>  <NA>  <NA>  <NA>  <NA>  Pump~ Swee~ <NA> 
## 10 4337899817 <NA>  Butte~ <NA>  <NA>  <NA>  <NA>  <NA>  <NA>  Pump~ Swee~ <NA> 
## # ... with 1,048 more rows, and 29 more variables: pie12 <chr>, pie13 <chr>,
## #   dessert1 <chr>, dessert2 <chr>, dessert3 <chr>, dessert4 <chr>,
## #   dessert5 <chr>, dessert6 <chr>, dessert7 <chr>, dessert8 <chr>,
## #   dessert9 <chr>, dessert10 <chr>, dessert11 <chr>, dessert12 <chr>,
## #   side1 <chr>, side2 <chr>, side3 <chr>, side4 <chr>, side5 <chr>,
## #   side6 <chr>, side7 <chr>, side8 <chr>, side9 <chr>, side10 <chr>,
## #   side11 <chr>, side12 <chr>, side13 <chr>, side14 <chr>, side15 <chr>
…
How does taste/servings look by age?

food_gathered %>% inner_join(thanks, by = "id") %>% 
  mutate(age_number = parse_number(age)) %>% #Gets age floors as number
  group_by(value) %>% 
  summarize(average_age = mean(age_number, na.rm = TRUE), 
            total = n()) %>% 
  arrange(desc(average_age))

## # A tibble: 32 x 3
##    value                            average_age total
##    <chr>                                  <dbl> <int>
##  1 Fruit salad                             41.3   215
##  2 Yams/sweet potato casserole             41.2   631
##  3 Coconut cream                           41.1    36
##  4 Squash                                  40.5   171
##  5 Vegetable salad                         40.4   209
##  6 Pecan                                   39.9   342
##  7 Apple                                   39.8   514
##  8 Mashed potatoes                         39.8   817
##  9 Pumpkin                                 39.7   729
## 10 Green beans/green bean casserole        39.6   686
## # ... with 22 more rows
…
Types of food by prayer

food_gathered %>% inner_join(thanks, by = "id") %>% 
  filter(!is.na(prayer)) %>% 
  group_by(type, value) %>% 
  summarize(prayer = sum(prayer == "Yes"), total = n(), 
            percent = prayer/total) %>% 
  arrange(desc(percent))

## `summarise()` has grouped output by 'type'. You can override using the
## `.groups` argument.

## # A tibble: 32 x 5
## # Groups:   type [3]
##    type    value               prayer total percent
##    <chr>   <chr>                <int> <int>   <dbl>
##  1 pie     Coconut cream           29    35   0.829
##  2 side    Macaroni and cheese    169   205   0.824
##  3 pie     Sweet Potato           121   151   0.801
##  4 dessert Peach cobbler           81   102   0.794
##  5 side    Fruit salad            169   214   0.790
##  6 pie     Cherry                  86   112   0.768
##  7 dessert Cheesecake             142   189   0.751
##  8 dessert Carrot cake             54    72   0.75 
##  9 pie     Buttermilk              25    34   0.735
## 10 dessert Fudge                   31    43   0.721
## # ... with 22 more rows

What sides, pies, and desserts are eaten together?

food_gathered

## # A tibble: 8,145 x 3
##            id type  value
##         <dbl> <chr> <chr>
##  1 4337954960 pie   Apple
##  2 4337951949 pie   Apple
##  3 4337935621 pie   Apple
##  4 4337931983 pie   Apple
##  5 4337924420 pie   Apple
##  6 4337914977 pie   Apple
##  7 4337893416 pie   Apple
##  8 4337878450 pie   Apple
##  9 4337844879 pie   Apple
## 10 4337823612 pie   Apple
## # ... with 8,135 more rows

library(widyr)

## Warning: package 'widyr' was built under R version 4.1.3

food_gathered %>% pairwise_cor(value, id, sort = TRUE) %>% 
  filter(item1 == "Pecan")

## # A tibble: 31 x 3
##    item1 item2                            correlation
##    <chr> <chr>                                  <dbl>
##  1 Pecan Yams/sweet potato casserole           0.169 
##  2 Pecan Green beans/green bean casserole      0.142 
##  3 Pecan Fruit salad                           0.139 
##  4 Pecan Macaroni and cheese                   0.132 
##  5 Pecan Rolls/biscuits                        0.130 
##  6 Pecan Peach cobbler                         0.130 
##  7 Pecan Sweet Potato                          0.113 
##  8 Pecan Key lime                              0.101 
##  9 Pecan Chocolate                             0.0994
## 10 Pecan Cornbread                             0.0991
## # ... with 21 more rows
…
