TidyTuesday_IKEA
…
Looks like things that come in other colors are slightly cheaper.

#Volume

ikea %>% count(name, category, designer, sort = TRUE)

## # A tibble: 1,451 x 4
##    name    category                         designer                           n
##    <chr>   <chr>                            <chr>                          <int>
##  1 IVAR    Bookcases & shelving units       IKEA of Sweden                    58
##  2 VIMLE   Sofas & armchairs                Ehlén Johansson                   48
##  3 GRÖNLID Sofas & armchairs                Francis Cayouette                 46
##  4 PAX     Wardrobes                        IKEA of Sweden/Ehlén Johansson    45
##  5 PAX     Wardrobes                        Ehlén Johansson/IKEA of Sweden    44
##  6 BEKANT  Tables & desks                   K Malmvall/E Lilja Löwenhielm     43
##  7 NORDLI  Chests of drawers & drawer units Ola Wihlborg                      42
##  8 BESTÅ   Bookcases & shelving units       IKEA of Sweden                    41
##  9 BESTÅ   TV & media furniture             IKEA of Sweden                    39
## 10 JONAXEL Bookcases & shelving units       IKEA of Sweden                    39
## # ... with 1,441 more rows
…
ikea %>% count(short_description)

## # A tibble: 1,706 x 2
##    short_description                                                           n
##    <chr>                                                                   <int>
##  1 "        1-seat module"                                                     1
##  2 "        1-seat section"                                                    5
##  3 "        1 sec/storage unit w foldable table,          89x30-104x179 c~     1
##  4 "        1 section,          44x55x216 cm"                                  1
##  5 "        1 section,          52x36x222-350 cm"                              3
##  6 "        1 section,          78x31x171 cm"                                  1
##  7 "        1 section,          84x40x216 cm"                                  1
##  8 "        1 section,          84x55x216 cm"                                  2
##  9 "        1 section,          92x36x222-350 cm"                              1
## 10 "        1 section,          92x51x222-350 cm"                              1
## # ... with 1,696 more rows
…
ikea %>%  #Cleans up the strings, removes some whitespace
 separate(short_description, c("main_description","cm_measure"), #separates text strings and puts them into these two columns 
          sep = ", ", # separates by ", "
          extra = "merge", #merges any additional commas into the text in the second column
          fill = "right", 
          remove = FALSE) %>%  #if there is no separation, NA for the second column
  tidyr::extract(cm_measure, "description_cm", "([\\d\\-xX]+) cm", remove = FALSE) %>% 
# Dave did the extract - I have the code exactly as written and mine doesn't work...until I turned off magittr. It was using the magittr extract() instead of tidyr::extract()
  unite(category_and_description, category, main_description, sep = " - ") %>% 
  count(category_and_description, sort = TRUE)

## # A tibble: 1,012 x 2
##    category_and_description                       n
##    <chr>                                      <int>
##  1 Tables & desks - Table                       127
##  2 Wardrobes - Wardrobe                         121
##  3 Chairs - Table and 4 chairs                   83
##  4 Tables & desks - Table and 4 chairs           83
##  5 Chairs - Chair                                53
##  6 Bookcases & shelving units - Shelving unit    45
##  7 Chairs - Table and 6 chairs                   39
##  8 Tables & desks - Table and 6 chairs           39
##  9 Sofas & armchairs - Corner sofa               33
## 10 Sofas & armchairs - 3-seat sofa               32
## # ... with 1,002 more rows
